<svg xmlns="http://www.w3.org/2000/svg" width="13.545" height="13.545" viewBox="0 0 13.545 13.545">
  <path id="Path_56362" data-name="Path 56362" d="M218.308,265.576a1.128,1.128,0,0,0-1.926-.8l-4.844,4.844-4.844-4.844a1.128,1.128,0,0,0-1.6,1.6l4.844,4.844-4.844,4.844a1.128,1.128,0,1,0,1.6,1.6l4.844-4.844,4.844,4.844a1.128,1.128,0,0,0,1.6-1.6l-4.844-4.844,4.844-4.844A1.128,1.128,0,0,0,218.308,265.576Z" transform="translate(-204.763 -264.448)" fill="#0F194D"/>
</svg>
