<?xml version="1.0" encoding="utf-8"?>
<!-- Generator: Adobe Illustrator 24.1.2, SVG Export Plug-In . SVG Version: 6.00 Build 0)  -->
<svg version="1.1" id="my-games-clr" xmlns="http://www.w3.org/2000/svg" xmlns:xlink="http://www.w3.org/1999/xlink" x="0px"
	 y="0px" width="20px" height="20px" viewBox="0 0 20 20" style="enable-background:new 0 0 20 20;" xml:space="preserve">
<style type="text/css">
	.st0{fill:url(#circle_1_);}
	.st1{fill:url(#star_1_);}
</style>
<g id="my-games">
	
		<linearGradient id="circle_1_" gradientUnits="userSpaceOnUse" x1="-905.4091" y1="526.0455" x2="-905.4091" y2="526.9545" gradientTransform="matrix(22 0 0 -22 19929 11593)">
		<stop  offset="0" style="stop-color:#FD5900"/>
		<stop  offset="1" style="stop-color:#FFDE00"/>
	</linearGradient>
	<circle id="circle" class="st0" cx="10" cy="10" r="10"/>
	
		<linearGradient id="star_1_" gradientUnits="userSpaceOnUse" x1="-883.9589" y1="512.4313" x2="-883.9589" y2="513.3403" gradientTransform="matrix(14.6882 0 0 -14.0384 12993.8564 7209.665)">
		<stop  offset="0" style="stop-color:#FFE59A"/>
		<stop  offset="1" style="stop-color:#FFFFD5"/>
	</linearGradient>
	<path id="star" class="st1" d="M16.7,8c-0.1-0.2-0.3-0.4-0.5-0.4L12.3,7l-1.7-3.5c-0.2-0.3-0.5-0.4-0.9-0.3
		C9.6,3.3,9.5,3.4,9.5,3.5L7.8,7L3.9,7.6C3.6,7.6,3.3,8,3.4,8.3c0,0.1,0.1,0.3,0.2,0.4l2.8,2.7l-0.7,3.8c-0.1,0.3,0.2,0.7,0.5,0.7
		c0.1,0,0.3,0,0.4-0.1l3.4-1.8l3.4,1.8c0.3,0.2,0.7,0,0.9-0.3c0.1-0.1,0.1-0.3,0.1-0.4l-0.7-3.8l2.8-2.7C16.7,8.5,16.8,8.2,16.7,8z"
		/>
</g>
</svg>
